simulation/qsim/last_pbl.msim.vcd
$comment
	File created using the following command:
		vcd file last_pbl.msim.vcd -direction
$end
$date
	Sun Jul 21 23:57:41 2024
$end
$version
	ModelSim Version 2020.1
$end
$timescale
	1ps
$end

$scope module display_group_vlg_vec_tst $end
$var reg 1 ! _840_Hz $end
$var reg 2 " dozens [1:0] $end
$var reg 2 # state [1:0] $end
$var reg 4 $ units [3:0] $end
$var wire 1 % digits [3] $end
$var wire 1 & digits [2] $end
$var wire 1 ' digits [1] $end
$var wire 1 ( digits [0] $end
$var wire 1 ) segments [7] $end
$var wire 1 * segments [6] $end
$var wire 1 + segments [5] $end
$var wire 1 , segments [4] $end
$var wire 1 - segments [3] $end
$var wire 1 . segments [2] $end
$var wire 1 / segments [1] $end
$var wire 1 0 segments [0] $end

$scope module i1 $end
$var wire 1 1 gnd $end
$var wire 1 2 vcc $end
$var wire 1 3 unknown $end
$var tri1 1 4 devclrn $end
$var tri1 1 5 devpor $end
$var tri1 1 6 devoe $end
$var wire 1 7 _840_Hz~combout $end
$var wire 1 8 comb_3|comb_3|comb_3|Q~regout $end
$var wire 1 9 comb_3|comb_3|comb_4|Q~regout $end
$var wire 1 : comb_3|comb_4|a~combout $end
$var wire 1 ; comb_3|comb_4|c~0_combout $end
$var wire 1 < comb_3|comb_4|c~1_combout $end
$var wire 1 = comb_3|comb_4|c~2_combout $end
$var wire 1 > comb_3|comb_9|comb_3|comb_5|x~0_combout $end
$var wire 1 ? comb_3|comb_9|comb_9|comb_5|x~0_combout $end
$var wire 1 @ comb_3|comb_9|comb_3|comb_5|x~1_combout $end
$var wire 1 A comb_3|comb_9|comb_3|comb_5|x~2_combout $end
$var wire 1 B comb_3|comb_9|comb_3|comb_5|x~3_combout $end
$var wire 1 C comb_3|comb_9|comb_4|comb_5|x~0_combout $end
$var wire 1 D comb_3|comb_9|comb_4|comb_5|x~1_combout $end
$var wire 1 E comb_3|comb_9|comb_5|comb_5|x~0_combout $end
$var wire 1 F comb_3|comb_9|comb_5|comb_5|x~1_combout $end
$var wire 1 G comb_3|comb_9|comb_9|comb_5|x~1_combout $end
$var wire 1 H comb_3|comb_9|comb_5|comb_5|x~2_combout $end
$var wire 1 I comb_3|comb_9|comb_6|comb_5|x~1_combout $end
$var wire 1 J comb_3|comb_9|comb_6|comb_5|x~0_combout $end
$var wire 1 K comb_3|comb_9|comb_6|comb_5|x~2_combout $end
$var wire 1 L comb_3|comb_9|comb_7|comb_5|x~0_combout $end
$var wire 1 M comb_3|comb_9|comb_7|comb_5|x~1_combout $end
$var wire 1 N comb_3|comb_9|comb_7|comb_5|x~2_combout $end
$var wire 1 O comb_3|comb_9|comb_8|comb_5|x~0_combout $end
$var wire 1 P comb_3|comb_9|comb_8|comb_5|x~1_combout $end
$var wire 1 Q comb_3|comb_9|comb_9|comb_5|x~2_combout $end
$var wire 1 R comb_3|comb_9|comb_9|comb_5|x~3_combout $end
$var wire 1 S state~combout [1] $end
$var wire 1 T state~combout [0] $end
$var wire 1 U dozens~combout [1] $end
$var wire 1 V dozens~combout [0] $end
$var wire 1 W units~combout [3] $end
$var wire 1 X units~combout [2] $end
$var wire 1 Y units~combout [1] $end
$var wire 1 Z units~combout [0] $end
$upscope $end
$upscope $end
$enddefinitions $end
#0
$dumpvars
0!
b0 "
b0 #
b0 $
0(
1'
1&
1%
00
0/
0.
0-
0,
0+
0*
0)
01
12
x3
14
15
16
07
08
09
0:
0;
0<
0=
0>
0?
0@
0A
0B
0C
0D
0E
0F
0G
0H
0I
0J
0K
0L
0M
0N
0O
0P
0Q
0R
0T
0S
0V
0U
0Z
0Y
0X
0W
$end
#10000
1!
17
19
18
1F
1=
1:
1H
1D
1(
0%
1.
1/
#20000
b1 $
0!
1Z
07
1>
#30000
1!
17
08
0F
0=
1<
0H
0D
0&
1%
0.
0/
#40000
b11 $
b10 $
0!
0Z
1Y
07
0>
#50000
1!
17
09
18
1G
1?
0<
1;
1H
1O
0'
1&
1P
1.
1+
#60000
b11 $
0!
1Z
07
1L
0H
1N
0.
1,
#70000
1!
17
08
0G
0?
0;
0:
0O
0L
0(
1'
0P
0N
0+
0,
#80000
b1 "
b111 $
b101 $
b100 $
0!
0Z
0Y
1X
1V
07
1>
1@
1A
#90000
1!
17
19
18
1K
1F
1B
1=
1:
0@
1H
1D
0K
0A
1-
10
1(
0%
0B
1.
1/
0-
00
#100000
b101 $
0!
1Z
07
0>
#110000
1!
17
08
0F
1@
0=
1<
0H
1K
1A
0D
1P
1N
0&
1%
1B
0.
1-
0/
1+
1,
10
#120000
b111 $
b110 $
0!
0Z
1Y
07
#130000
1!
17
09
18
0K
0B
1?
0<
1;
0@
1C
0P
0N
0A
0-
00
0'
1&
1D
0+
0,
1/
#140000
b111 $
0!
1Z
07
1O
1L
1J
0C
1P
1N
1K
0D
1+
1,
1-
0/
#150000
1!
17
08
1@
0?
0;
0:
1A
0O
0L
0J
0(
1'
0P
0N
0K
0+
0,
0-
#160000
b11 "
b1111 $
b10 "
b1011 $
b1001 $
b1000 $
0!
0Z
0Y
0X
1W
0V
1U
07
1E
0@
1Q
0A
#170000
1!
17
19
18
1R
1=
1:
0Q
0E
1D
0R
1F
1*
1(
0%
1H
1/
0*
1.
#180000
b1001 $
0!
1Z
07
1>
#190000
1!
17
08
1Q
0F
1E
0=
1<
1R
0H
1F
0D
1P
0&
1%
1H
1*
0.
0/
1+
1.
#200000
b1011 $
b1010 $
0!
0Z
1Y
07
0>
#210000
1!
17
09
18
0R
0F
0<
1;
0Q
0E
0H
0P
0*
0'
1&
0.
0+
#220000
b1011 $
0!
1Z
07
#230000
1!
17
08
1Q
1E
0;
0:
0(
1'
#240000
b11 "
b1111 $
b1101 $
b1100 $
0!
0Z
0Y
1X
1V
07
1>
0E
#250000
1!
17
19
18
1R
1F
1=
1:
0Q
1H
1D
0R
1*
1(
0%
1.
1/
0*
#260000
b1101 $
0!
1Z
07
0>
#270000
1!
17
08
1Q
0F
0=
1<
1R
0H
0D
1N
0&
1%
1*
0.
0/
1,
#280000
b1111 $
b1110 $
0!
0Z
1Y
07
#290000
1!
17
09
18
0R
0<
1;
0Q
0N
0*
0'
1&
0,
#300000
b1111 $
0!
1Z
07
#310000
1!
17
08
1Q
0;
0:
0(
1'
#320000
b1 #
b1 "
b111 $
b0 "
b11 $
b1 $
b0 $
0!
0Z
0Y
0X
0W
0V
0U
1T
07
0Q
#330000
1!
17
19
18
1=
1:
1I
1K
1(
0%
1-
#340000
b1 $
0!
1Z
07
1>
#350000
1!
17
08
0I
0=
1<
0K
0&
1%
0-
#360000
b11 $
b10 $
0!
0Z
1Y
07
0>
#370000
1!
17
09
18
1G
1?
0<
1;
1I
1H
1O
0'
1&
1P
1.
1+
#380000
b11 $
0!
1Z
07
1L
0H
1N
0.
1,
#390000
1!
17
08
0I
0G
0?
0;
0:
0O
0L
0(
1'
0P
0N
0+
0,
#400000
b1 "
b111 $
b101 $
b100 $
0!
0Z
0Y
1X
1V
07
1>
1@
1A
#410000
1!
17
19
18
1K
1B
1=
1:
1I
0@
0A
1-
10
1(
0%
0B
00
#420000
b101 $
0!
1Z
07
0>
#430000
1!
17
08
0I
1@
0=
1<
1A
1P
1N
0&
1%
1B
1+
1,
10
#440000
b111 $
b110 $
0!
0Z
1Y
07
#450000
1!
17
09
18
0K
0B
1?
0<
1;
1I
0@
1C
0P
0N
0A
0-
00
0'
1&
1D
0+
0,
1/
#460000
b111 $
0!
1Z
07
1O
1L
1J
0C
1P
1N
1K
0D
1+
1,
1-
0/
#470000
1!
17
08
0I
1@
0?
0;
0:
1A
0O
0L
0J
0(
1'
0P
0N
0K
0+
0,
0-
#480000
b11 "
b1111 $
b10 "
b1011 $
b1001 $
b1000 $
0!
0Z
0Y
0X
1W
0V
1U
07
1E
0@
1Q
0A
#490000
1!
17
19
18
1R
1F
1=
1:
0Q
1I
0E
1H
0R
1K
0F
1*
1(
0%
0H
1.
0*
1-
0.
#500000
b1001 $
0!
1Z
07
1>
#510000
1!
17
08
1Q
0I
1E
0=
1<
1R
0K
1F
1P
0&
1%
1H
1*
0-
1+
1.
#520000
b1011 $
b1010 $
0!
0Z
1Y
07
0>
#530000
1!
17
09
18
0R
0F
0<
1;
0Q
1I
0E
0H
0P
0*
0'
1&
0.
0+
#540000
b1011 $
0!
1Z
07
#550000
1!
17
08
1Q
0I
1E
0;
0:
0(
1'
#560000
b11 "
b1111 $
b1101 $
b1100 $
0!
0Z
0Y
1X
1V
07
1>
0E
#570000
1!
17
19
18
1R
1=
1:
0Q
1I
0R
1K
1*
1(
0%
0*
1-
#580000
b1101 $
0!
1Z
07
0>
#590000
1!
17
08
1Q
0I
0=
1<
1R
0K
1N
0&
1%
1*
0-
1,
#600000
b1111 $
b1110 $
0!
0Z
1Y
07
#610000
1!
17
09
18
0R
0<
1;
0Q
1I
0N
0*
0'
1&
0,
#620000
b1111 $
0!
1Z
07
#630000
1!
17
08
1Q
0I
0;
0:
0(
1'
#640000
b11 #
b10 #
b1 "
b111 $
b0 "
b11 $
b1 $
b0 $
0!
0Z
0Y
0X
0W
0V
0U
0T
1S
07
0Q
#650000
1!
17
19
18
1F
1=
1:
1Q
1E
1H
1D
1R
0F
1(
0%
0H
1.
1/
1*
0.
#660000
b1 $
0!
1Z
07
1>
#670000
1!
17
08
0Q
1F
0E
0=
1<
0R
1H
0F
0D
0&
1%
0H
0*
1.
0/
0.
#680000
b11 $
b10 $
0!
0Z
1Y
07
0>
#690000
1!
17
09
18
1G
1?
0<
1;
1Q
1E
1H
1O
0'
1&
1P
1.
1+
#700000
b11 $
0!
1Z
07
1L
0H
1N
0.
1,
#710000
1!
17
08
0Q
0G
0E
0?
0;
0:
0O
0L
0(
1'
0P
0N
0+
0,
#720000
b1 "
b111 $
b101 $
b100 $
0!
0Z
0Y
1X
1V
07
1>
1@
1A
#730000
1!
17
19
18
1K
1F
1B
1=
1:
1Q
1E
0@
1H
1D
1R
0F
0K
0A
1-
10
1(
0%
0H
0B
1.
1/
1*
0-
0.
00
#740000
b101 $
0!
1Z
07
0>
#750000
1!
17
08
0Q
1F
0E
1@
0=
1<
0R
1H
0F
1K
1A
0D
1P
1N
0&
1%
0H
1B
0*
1.
1-
0/
1+
1,
0.
10
#760000
b111 $
b110 $
0!
0Z
1Y
07
#770000
1!
17
09
18
0K
0B
1?
0<
1;
1Q
1E
0@
1C
0P
0N
0A
0-
00
0'
1&
1D
0+
0,
1/
#780000
b111 $
0!
1Z
07
1O
1L
1J
0C
1P
1N
1K
0D
1+
1,
1-
0/
#790000
1!
17
08
0Q
0E
1@
0?
0;
0:
1A
0O
0L
0J
0(
1'
0P
0N
0K
0+
0,
0-
#800000
b11 "
b1111 $
b10 "
b1011 $
b1001 $
b1000 $
0!
0Z
0Y
0X
1W
0V
1U
07
1E
0@
1Q
0A
#810000
1!
17
19
18
1R
1=
1:
1D
1*
1(
0%
1/
#820000
b1001 $
0!
1Z
07
1>
#830000
1!
17
08
1F
0=
1<
1H
0D
1P
0&
1%
1.
0/
1+
#840000
b1011 $
b1010 $
0!
0Z
1Y
07
0>
#850000
1!
17
09
18
0R
0F
0<
1;
0H
0P
0*
0'
1&
0.
0+
#860000
b1011 $
0!
1Z
07
#870000
1!
17
08
0;
0:
0(
1'
#880000
b11 "
b1111 $
b1101 $
b1100 $
0!
0Z
0Y
1X
1V
07
1>
0E
#890000
1!
17
19
18
1R
1F
1=
1:
1E
1H
1D
0F
1*
1(
0%
0H
1.
1/
0.
#900000
b1101 $
0!
1Z
07
0>
#910000
1!
17
08
1F
0E
0=
1<
1H
0F
0D
1N
0&
1%
0H
1.
0/
1,
0.
#920000
b1111 $
b1110 $
0!
0Z
1Y
07
#930000
1!
17
09
18
0R
0<
1;
1E
0N
0*
0'
1&
0,
#940000
b1111 $
0!
1Z
07
#950000
1!
17
08
0E
0;
0:
0(
1'
#960000
b11 #
b1 "
b111 $
b0 "
b11 $
b1 $
b0 $
0!
0Z
0Y
0X
0W
0V
0U
1T
07
0Q
#970000
1!
17
19
18
1=
1:
1Q
1E
1A
1D
1R
1F
1B
1(
0%
1H
1/
1*
10
1.
#980000
b1 $
0!
1Z
07
1>
#990000
1!
17
08
0Q
0E
0A
0=
1<
0R
0F
0B
0D
0&
1%
0H
0*
00
0/
0.
#1000000
b11 $
b10 $
0!
0Z
1Y
07
0>
#1010000
1!
17
09
18
1G
1?
0<
1;
1Q
1E
1A
1H
1O
0'
1&
1P
1.
1+
#1020000
b11 $
0!
1Z
07
1L
0H
1N
0.
1,
#1030000
1!
17
08
0Q
0G
0E
0A
0?
0;
0:
0O
0L
0(
1'
0P
0N
0+
0,
#1040000
b1 "
b111 $
b101 $
b100 $
0!
0Z
0Y
1X
1V
07
1>
1@
1A
#1050000
1!
17
19
18
1K
1B
1=
1:
1Q
1E
0@
1D
1R
1F
0K
1-
10
1(
0%
1H
1/
1*
0-
1.
#1060000
b101 $
0!
1Z
07
0>
#1070000
1!
17
08
0Q
0E
0A
1@
0=
1<
0R
0F
0B
1K
1A
0D
1P
1N
0&
1%
0H
1B
0*
00
1-
0/
1+
1,
0.
10
#1080000
b111 $
b110 $
0!
0Z
1Y
07
#1090000
1!
17
09
18
0K
0B
1?
0<
1;
1Q
1E
0@
1C
0P
0N
0-
00
0'
1&
1D
0+
0,
1/
#1100000
b111 $
0!
1Z
07
1O
1L
1J
0C
1P
1N
1K
0D
1+
1,
1-
0/
#1110000
1!
17
08
0Q
0E
0A
1@
0?
0;
0:
1A
0O
0L
0J
0(
1'
0P
0N
0K
0+
0,
0-
#1120000
b11 "
b1111 $
b10 "
b1011 $
b1001 $
b1000 $
0!
0Z
0Y
0X
1W
0V
1U
07
1E
0@
1Q
0A
#1130000
1!
17
19
18
1R
1F
1=
1:
1A
1H
1D
1B
1*
1(
0%
1.
1/
10
#1140000
b1001 $
0!
1Z
07
1>
#1150000
1!
17
08
0A
0=
1<
0B
0D
1P
0&
1%
00
0/
1+
#1160000
b1011 $
b1010 $
0!
0Z
1Y
07
0>
#1170000
1!
17
09
18
0R
0F
0<
1;
1A
0H
0P
0*
0'
1&
0.
0+
#1180000
b1011 $
0!
1Z
07
#1190000
1!
17
08
0A
0;
0:
0(
1'
#1200000
b11 "
b1111 $
b1101 $
b1100 $
0!
0Z
0Y
1X
1V
07
1>
0E
#1210000
1!
17
19
18
1R
1=
1:
1E
1A
1D
1F
1B
1*
1(
0%
1H
1/
10
1.
#1220000
b1101 $
0!
1Z
07
0>
#1230000
1!
17
08
0E
0A
0=
1<
0F
0B
0D
1N
0&
1%
0H
00
0/
1,
0.
#1240000
b1111 $
b1110 $
0!
0Z
1Y
07
#1250000
1!
17
09
18
0R
0<
1;
1E
1A
0N
0*
0'
1&
0,
#1260000
b1111 $
0!
1Z
07
#1270000
1!
17
08
0E
0A
0;
0:
0(
1'
